…
## Example

This is a basic example which shows you how to solve a common problem:

``` r
#load diann report
load("./data/diann_report.rda")

diann_report
#> # A tibble: 123,454 × 43
#>    File.Name    Run    Protein.Group Protein.Ids Protein.Names Genes PG.Quantity
#>    <chr>        <chr>  <chr>         <chr>       <chr>         <chr>       <dbl>
#>  1 "D:\\qtof1\… Batch… P04114        P04114      APOB_HUMAN    APOB       11879 
#>  2 "D:\\qtof1\… Batch… P04114        P04114      APOB_HUMAN    APOB       51152.
#>  3 "D:\\qtof1\… Batch… P04114        P04114      APOB_HUMAN    APOB       12350.
#>  4 "D:\\qtof1\… Batch… P04114        P04114      APOB_HUMAN    APOB       11897.
#>  5 "D:\\qtof1\… Batch… P04114        P04114      APOB_HUMAN    APOB       16578.
#>  6 "D:\\qtof1\… Batch… P04114        P04114      APOB_HUMAN    APOB       10623.
#>  7 "D:\\qtof1\… Batch… P04114        P04114      APOB_HUMAN    APOB       43581.
#>  8 "D:\\qtof1\… Batch… P04114        P04114      APOB_HUMAN    APOB       10335.
#>  9 "D:\\qtof1\… Batch… P04114        P04114      APOB_HUMAN    APOB       16549.
#> 10 "D:\\qtof1\… Batch… P04114        P04114      APOB_HUMAN    APOB       38016.
#> # … with 123,444 more rows, and 36 more variables: PG.Normalised <dbl>,
#> #   Genes.Quantity <dbl>, Genes.Normalised <dbl>, Genes.MaxLFQ <dbl>,
#> #   Genes.MaxLFQ.Unique <dbl>, Modified.Sequence <chr>,
#> #   Stripped.Sequence <chr>, Precursor.Id <chr>, Precursor.Charge <int>,
#> #   Q.Value <dbl>, Protein.Q.Value <dbl>, PG.Q.Value <dbl>, GG.Q.Value <dbl>,
#> #   Proteotypic <int>, Precursor.Quantity <dbl>, Precursor.Normalised <dbl>,
#> #   Label.Ratio <int>, Quantity.Quality <dbl>, RT <dbl>, RT.Start <dbl>, …
```
…
